{
	"highway_types": [
		"living_street",
		"motorway",
		"motorway_link",
		"primary",
		"primary_link",
		"residential",
		"secondary",
		"secondary_link",
		"tertiary",
		"tertiary_link",
		"trunk",
		"trunk_link",
		"unclassified",
		"service"
	],
	"simplify": true,
	"strongly_connected": true,
	"way_keys_to_transfer": [
		"lanes",
		"maxspeed",
		"priority_road"
	],
	"way_values_equal_for_merge": [
		"lanes",
		"maxspeed",
		"priority_road"
	],
	"node_keys_to_transfer": [
		"highway"
	],
	"node_key_value_pairs_conserve": [
		[
			"highway",
			"give_way"
		],
		[
			"highway",
			"stop"
		],
		[
			"highway",
			"traffic_signals"
		]
	]
}